Chapter 5 Application | Bioinformatics tools and pipelines using R and CWL
…
tools <- cwlTools(cachePath = tempdir())
tools

## class: BiocFileCache
## bfccache: /tmp/Rtmp7YFNaP
## bfccount: 55
## For more information see: bfcinfo() or bfcquery()

The full paths can be pulled from the “fpath” column. The scripts can
be viewed to demonstrate how the tools and pipelines were built.

library(dplyr)
bfcinfo(tools) %>% select(rname, fpath)

## # A tibble: 55 x 2
##    rname              fpath                                                
##    <chr>              <chr>                                                
##  1 ApplyBQSR          /home/qhu/workspace/projects/RPipe/RcwlPipelines/ins…
##  2 BaseRecalibrator   /home/qhu/workspace/projects/RPipe/RcwlPipelines/ins…
##  3 bcfview            /home/qhu/workspace/projects/RPipe/RcwlPipelines/ins…
##  4 blastn             /home/qhu/workspace/projects/RPipe/RcwlPipelines/ins…
##  5 bowtie2_build      /home/qhu/workspace/projects/RPipe/RcwlPipelines/ins…
##  6 bowtie2            /home/qhu/workspace/projects/RPipe/RcwlPipelines/ins…
##  7 bwa_index          /home/qhu/workspace/projects/RPipe/RcwlPipelines/ins…
##  8 bwa                /home/qhu/workspace/projects/RPipe/RcwlPipelines/ins…
##  9 CalculateContamin… /home/qhu/workspace/projects/RPipe/RcwlPipelines/ins…
## 10 ColSeqArtifact     /home/qhu/workspace/projects/RPipe/RcwlPipelines/ins…
## # … with 45 more rows
…
